laby_1/sym_SA/fol_gabriel/NewFile6.csv

CH1,CH2,Start,Increment,
Volt,Volt,-5.40000e-03,2.00000e-05
-4.08e+00,-1.32e+01,
-4.16e+00,-1.34e+01,
-4.08e+00,-1.32e+01,
-4.16e+00,-1.34e+01,
-4.08e+00,-1.34e+01,
-4.16e+00,-1.32e+01,
-4.08e+00,-1.32e+01,
-4.16e+00,-1.34e+01,
-4.16e+00,-1.32e+01,
-4.08e+00,-1.34e+01,
-4.08e+00,-1.32e+01,
-4.16e+00,-1.34e+01,
-4.08e+00,-1.32e+01,
-4.16e+00,-1.34e+01,
-4.08e+00,-1.32e+01,
-4.16e+00,-1.34e+01,
-4.08e+00,-1.32e+01,
-4.16e+00,-1.34e+01,
-4.08e+00,-1.32e+01,
-4.16e+00,-1.34e+01,
-4.08e+00,-1.32e+01,
-4.16e+00,-1.34e+01,
-4.08e+00,-1.32e+01,
-4.16e+00,-1.34e+01,
-4.08e+00,-1.32e+01,
-4.16e+00,-1.34e+01,
-4.16e+00,-1.34e+01,
-4.08e+00,-1.32e+01,
-4.08e+00,-1.32e+01,
-4.16e+00,-1.34e+01,
-4.16e+00,-1.32e+01,
-4.08e+00,-1.34e+01,
-4.08e+00,-1.32e+01,
-4.16e+00,-1.34e+01,
-4.16e+00,-1.32e+01,
-4.08e+00,-1.34e+01,
-4.08e+00,-1.32e+01,
-4.16e+00,-1.34e+01,
-4.08e+00,-1.32e+01,
-4.16e+00,-1.34e+01,
-4.16e+00,-1.34e+01,
-4.08e+00,-1.32e+01,
-4.08e+00,-1.32e+01,
-4.16e+00,-1.34e+01,
-4.08e+00,-1.32e+01,
-4.16e+00,-1.34e+01,
-4.08e+00,-1.34e+01,
-4.16e+00,-1.32e+01,
-4.08e+00,-1.32e+01,
-4.16e+00,-1.34e+01,
-4.08e+00,-1.32e+01,
-4.16e+00,-1.34e+01,
-4.08e+00,-1.32e+01,
-4.16e+00,-1.34e+01,
-4.16e+00,-1.32e+01,
-4.08e+00,-1.34e+01,
-4.08e+00,-1.32e+01,
-4.16e+00,-1.34e+01,
-4.08e+00,-1.34e+01,
-4.16e+00,-1.32e+01,
-4.08e+00,-1.32e+01,
-4.16e+00,-1.34e+01,
-4.16e+00,-1.32e+01,
-4.08e+00,-1.34e+01,
-4.08e+00,-1.32e+01,
-4.16e+00,-1.34e+01,
-4.08e+00,-1.34e+01,
-4.16e+00,-1.32e+01,
-4.08e+00,-1.32e+01,
-4.16e+00,-1.34e+01,
-4.08e+00,-1.32e+01,
-4.16e+00,-1.34e+01,
-4.08e+00,-1.32e+01,
-4.16e+00,-1.34e+01,
-4.08e+00,-1.32e+01,
-4.16e+00,-1.34e+01,
-4.16e+00,-1.32e+01,
-4.08e+00,-1.34e+01,
-4.08e+00,-1.34e+01,
-4.16e+00,-1.32e+01,
-4.08e+00,-1.34e+01,
-4.16e+00,-1.32e+01,
-4.08e+00,-1.32e+01,
-4.16e+00,-1.34e+01,
-4.08e+00,-1.32e+01,
-4.16e+00,-1.34e+01,
-4.08e+00,-1.32e+01,
-4.16e+00,-1.34e+01,
-4.08e+00,-1.32e+01,
-4.16e+00,-1.34e+01,
-4.08e+00,-1.32e+01,
-4.16e+00,-1.34e+01,
-4.08e+00,-1.32e+01,
-4.16e+00,-1.34e+01,
-4.08e+00,-1.32e+01,
-4.16e+00,-1.34e+01,
-4.08e+00,-1.34e+01,
-4.16e+00,-1.32e+01,
-4.08e+00,-1.32e+01,
-4.16e+00,-1.34e+01,
-4.08e+00,-1.32e+01,
-4.16e+00,-1.34e+01,
-4.08e+00,-1.34e+01,
-4.16e+00,-1.32e+01,
-4.08e+00,-1.32e+01,
-4.16e+00,-1.34e+01,
-4.16e+00,-1.32e+01,
-4.08e+00,-1.34e+01,
-4.08e+00,-1.32e+01,
-4.16e+00,-1.34e+01,
-4.08e+00,-1.32e+01,
-4.16e+00,-1.34e+01,
-4.08e+00,-1.32e+01,
-4.16e+00,-1.34e+01,
-4.16e+00,-1.32e+01,
-4.08e+00,-1.34e+01,
-4.08e+00,-1.32e+01,
-4.16e+00,-1.34e+01,
-4.08e+00,-1.32e+01,
-4.16e+00,-1.34e+01,
-4.08e+00,-1.32e+01,
-4.16e+00,-1.34e+01,
-4.08e+00,-1.32e+01,
-4.16e+00,-1.34e+01,
-4.08e+00,-1.32e+01,
-4.16e+00,-1.34e+01,
-4.16e+00,-1.32e+01,
-4.08e+00,-1.34e+01,
-4.08e+00,-1.32e+01,
-4.16e+00,-1.34e+01,
-4.08e+00,-1.34e+01,
-4.16e+00,-1.32e+01,
-4.08e+00,-1.32e+01,
-4.16e+00,-1.34e+01,
-4.08e+00,-1.32e+01,
-4.16e+00,-1.34e+01,
-4.08e+00,-1.34e+01,
-4.16e+00,-1.32e+01,
-4.08e+00,-1.32e+01,
-4.16e+00,-1.34e+01,
-4.08e+00,-1.32e+01,
-4.16e+00,-1.34e+01,
-4.08e+00,-1.32e+01,
-4.16e+00,-1.34e+01,
-4.08e+00,-1.32e+01,
-4.16e+00,-1.34e+01,
-4.08e+00,-1.32e+01,
-4.16e+00,-1.34e+01,
-4.08e+00,-1.32e+01,
-4.16e+00,-1.34e+01,
-4.08e+00,-1.32e+01,
-4.16e+00,-1.34e+01,
-4.08e+00,-1.32e+01,
-4.16e+00,-1.34e+01,
-4.08e+00,-1.32e+01,
-4.16e+00,-1.34e+01,
-4.08e+00,-1.32e+01,
-4.16e+00,-1.34e+01,
-4.08e+00,-1.34e+01,
-4.16e+00,-1.32e+01,
-4.16e+00,-1.34e+01,
-4.08e+00,-1.32e+01,
-4.08e+00,-1.32e+01,
-4.16e+00,-1.34e+01,
-4.08e+00,-1.32e+01,
-4.16e+00,-1.34e+01,
-4.08e+00,-1.32e+01,
-4.16e+00,-1.34e+01,
-4.08e+00,-1.32e+01,
-4.16e+00,-1.34e+01,
-4.08e+00,-1.32e+01,
-4.16e+00,-1.34e+01,
-4.08e+00,-1.32e+01,
-4.16e+00,-1.34e+01,
-4.16e+00,-1.32e+01,
-4.08e+00,-1.34e+01,
-4.08e+00,-1.32e+01,
-4.16e+00,-1.34e+01,
-4.08e+00,-1.32e+01,
-4.16e+00,-1.34e+01,
-4.08e+00,-1.32e+01,
-4.16e+00,-1.34e+01,
-4.08e+00,-1.32e+01,
-4.16e+00,-1.34e+01,
-4.08e+00,-1.32e+01,
-4.16e+00,-1.34e+01,
-4.08e+00,-1.32e+01,
-4.16e+00,-1.34e+01,
-4.08e+00,-1.32e+01,
-4.16e+00,-1.34e+01,
-4.08e+00,-1.32e+01,
-4.16e+00,-1.34e+01,
-4.08e+00,-1.34e+01,
-4.16e+00,-1.32e+01,
-4.08e+00,-1.32e+01,
-4.16e+00,-1.34e+01,
-4.16e+00,-1.32e+01,
-4.08e+00,-1.34e+01,
-4.08e+00,-1.32e+01,
-4.16e+00,-1.34e+01,
-4.08e+00,-1.32e+01,
-4.16e+00,-1.34e+01,
-4.08e+00,-1.34e+01,
-4.16e+00,-1.32e+01,
-4.08e+00,-1.34e+01,
-4.16e+00,-1.32e+01,
-4.08e+00,-1.34e+01,
-4.16e+00,-1.32e+01,
-4.08e+00,-1.32e+01,
-4.16e+00,-1.34e+01,
-4.08e+00,-1.34e+01,
-4.16e+00,-1.32e+01,
-4.08e+00,-1.32e+01,
-4.16e+00,-1.34e+01,
-4.16e+00,-1.32e+01,
-4.08e+00,-1.34e+01,
-4.08e+00,-1.32e+01,
-4.16e+00,-1.34e+01,
-4.08e+00,-1.32e+01,
-4.16e+00,-1.34e+01,
-4.08e+00,-1.32e+01,
-4.16e+00,-1.34e+01,
-4.08e+00,-1.32e+01,
-4.16e+00,-1.34e+01,
-4.08e+00,-1.34e+01,
-4.16e+00,-1.32e+01,
-4.08e+00,-1.32e+01,
-4.16e+00,-1.34e+01,
-4.16e+00,-1.32e+01,
-4.08e+00,-1.34e+01,
-4.16e+00,-1.32e+01,
-4.08e+00,-1.34e+01,
-4.08e+00,-1.34e+01,
-4.16e+00,-1.32e+01,
-4.16e+00,-1.32e+01,
-4.08e+00,-1.34e+01,
-4.08e+00,-1.32e+01,
-4.16e+00,-1.34e+01,
-4.08e+00,-1.32e+01,
-4.16e+00,-1.34e+01,
-4.08e+00,-1.32e+01,
-4.16e+00,-1.34e+01,
-4.08e+00,-1.32e+01,
-4.16e+00,-1.34e+01,
-4.08e+00,-1.32e+01,
-4.16e+00,-1.34e+01,
-4.08e+00,-1.34e+01,
-4.16e+00,-1.32e+01,
-4.08e+00,-1.32e+01,
-4.16e+00,-1.34e+01,
-4.16e+00,-1.32e+01,
-4.08e+00,-1.34e+01,
-4.08e+00,-1.32e+01,
-4.16e+00,-1.34e+01,
-4.08e+00,-1.34e+01,
-4.16e+00,-1.32e+01,
-4.08e+00,-1.32e+01,
-4.16e+00,-1.34e+01,
-4.08e+00,-1.32e+01,
-4.16e+00,-1.34e+01,
-4.08e+00,-1.32e+01,
-4.16e+00,-1.34e+01,
-4.08e+00,-1.34e+01,
-4.16e+00,-1.32e+01,
-4.08e+00,-1.32e+01,
-4.16e+00,-1.34e+01,
-4.08e+00,-1.34e+01,
-4.16e+00,-1.32e+01,
-4.16e+00,-1.34e+01,
2.48e+00,-1.32e+01,
4.08e+00,-1.32e+01,
4.24e+00,-1.34e+01,
4.16e+00,-1.32e+01,
4.24e+00,-1.34e+01,
4.16e+00,-1.34e+01,
4.24e+00,-1.32e+01,
4.16e+00,-1.32e+01,
4.24e+00,-1.34e+01,
4.16e+00,-1.32e+01,
4.24e+00,-1.34e+01,
4.24e+00,-1.32e+01,
4.16e+00,-1.34e+01,
4.16e+00,-1.32e+01,
4.24e+00,-1.34e+01,
4.16e+00,-1.34e+01,
4.24e+00,-1.32e+01,
4.16e+00,-1.32e+01,
4.24e+00,-1.34e+01,
4.16e+00,-1.32e+01,
4.24e+00,-1.34e+01,
4.16e+00,-1.32e+01,
4.24e+00,-1.34e+01,
4.24e+00,-1.34e+01,
4.16e+00,-1.32e+01,
4.16e+00,-1.32e+01,
4.24e+00,-1.34e+01,
4.16e+00,-1.34e+01,
4.24e+00,-1.30e+01,
4.16e+00,-1.34e+01,
4.24e+00,-1.28e+01,
4.16e+00,-1.30e+01,
4.24e+00,-1.24e+01,
4.16e+00,-1.26e+01,
4.24e+00,-1.22e+01,
4.16e+00,-1.24e+01,
4.24e+00,-1.20e+01,
4.16e+00,-1.22e+01,
4.24e+00,-1.18e+01,
4.16e+00,-1.20e+01,
4.24e+00,-1.16e+01,
4.16e+00,-1.18e+01,
4.24e+00,-1.14e+01,
4.16e+00,-1.16e+01,
4.24e+00,-1.12e+01,
4.16e+00,-1.12e+01,
4.24e+00,-1.08e+01,
4.16e+00,-1.10e+01,
4.24e+00,-1.06e+01,
4.16e+00,-1.08e+01,
4.24e+00,-1.04e+01,
4.16e+00,-1.06e+01,
4.24e+00,-1.02e+01,
4.16e+00,-1.04e+01,
4.24e+00,-1.00e+01,
4.16e+00,-1.02e+01,
4.24e+00,-9.60e+00,
4.16e+00,-9.80e+00,
4.24e+00,-9.40e+00,
4.16e+00,-9.40e+00,
4.24e+00,-9.20e+00,
4.16e+00,-9.20e+00,
4.24e+00,-8.80e+00,
4.16e+00,-9.00e+00,
4.24e+00,-8.60e+00,
4.16e+00,-8.80e+00,
4.24e+00,-8.40e+00,
4.16e+00,-8.60e+00,
4.24e+00,-8.20e+00,
4.16e+00,-8.40e+00,
4.24e+00,-8.00e+00,
4.16e+00,-8.20e+00,
4.24e+00,-7.80e+00,
4.24e+00,-8.00e+00,
4.16e+00,-7.40e+00,
4.16e+00,-7.60e+00,
4.24e+00,-7.20e+00,
4.16e+00,-7.40e+00,
4.24e+00,-7.00e+00,
4.16e+00,-7.00e+00,
4.24e+00,-6.60e+00,
4.16e+00,-6.80e+00,
4.24e+00,-6.40e+00,
4.16e+00,-6.60e+00,
4.24e+00,-6.20e+00,
4.16e+00,-6.40e+00,
4.24e+00,-6.00e+00,
4.16e+00,-6.20e+00,
4.24e+00,-5.60e+00,
4.16e+00,-5.80e+00,
4.24e+00,-5.40e+00,
4.16e+00,-5.60e+00,
4.24e+00,-5.20e+00,
4.16e+00,-5.40e+00,
4.24e+00,-5.00e+00,
4.16e+00,-5.20e+00,
4.24e+00,-4.80e+00,
4.16e+00,-5.00e+00,
4.24e+00,-4.60e+00,
4.16e+00,-4.80e+00,
4.24e+00,-4.40e+00,
4.16e+00,-4.60e+00,
4.24e+00,-4.00e+00,
4.16e+00,-4.20e+00,
4.24e+00,-3.60e+00,
4.16e+00,-3.80e+00,
4.24e+00,-3.40e+00,
4.16e+00,-3.60e+00,
4.24e+00,-3.20e+00,
4.24e+00,-3.40e+00,
4.16e+00,-3.00e+00,
4.24e+00,-3.20e+00,
4.16e+00,-2.80e+00,
4.16e+00,-3.00e+00,
4.24e+00,-2.60e+00,
4.16e+00,-2.80e+00,
4.24e+00,-2.40e+00,
4.16e+00,-2.40e+00,
4.24e+00,-2.00e+00,
4.16e+00,-2.20e+00,
4.24e+00,-1.80e+00,
4.16e+00,-2.00e+00,
4.24e+00,-1.60e+00,
4.16e+00,-1.80e+00,
4.24e+00,-1.40e+00,
4.24e+00,-1.60e+00,
4.16e+00,-1.00e+00,
4.16e+00,-1.20e+00,
4.24e+00,-8.00e-01,
4.16e+00,-1.00e+00,
4.24e+00,-6.00e-01,
4.16e+00,-8.00e-01,
4.24e+00,-2.00e-01,
4.16e+00,-4.00e-01,
4.24e+00,0.00e+00,
4.16e+00,-2.00e-01,
4.24e+00,2.00e-01,
4.16e+00,0.00e+00,
4.24e+00,4.00e-01,
4.16e+00,2.00e-01,
4.24e+00,6.00e-01,
4.16e+00,4.00e-01,
4.24e+00,8.00e-01,
4.16e+00,6.00e-01,
4.24e+00,1.00e+00,
4.16e+00,1.00e+00,
4.24e+00,1.20e+00,
4.16e+00,1.20e+00,
4.24e+00,1.60e+00,
4.16e+00,1.40e+00,
4.24e+00,2.00e+00,
4.16e+00,1.80e+00,
4.24e+00,2.20e+00,
4.16e+00,2.00e+00,
4.24e+00,2.40e+00,
4.16e+00,2.20e+00,
4.24e+00,2.60e+00,
4.16e+00,2.40e+00,
4.24e+00,2.80e+00,
4.16e+00,2.60e+00,
4.24e+00,3.00e+00,
4.16e+00,2.80e+00,
4.24e+00,3.40e+00,
4.16e+00,3.20e+00,
4.24e+00,3.60e+00,
4.16e+00,3.40e+00,
4.24e+00,3.80e+00,
4.16e+00,3.60e+00,
4.24e+00,4.00e+00,
4.16e+00,3.80e+00,
4.24e+00,4.20e+00,
4.16e+00,4.00e+00,
4.24e+00,4.40e+00,
4.16e+00,4.20e+00,
4.24e+00,4.80e+00,
4.16e+00,4.60e+00,
4.24e+00,5.00e+00,
4.16e+00,5.00e+00,
4.24e+00,5.40e+00,
4.16e+00,5.20e+00,
4.24e+00,5.60e+00,
4.16e+00,5.40e+00,
4.24e+00,5.80e+00,
4.16e+00,5.60e+00,
4.24e+00,6.00e+00,
4.16e+00,5.80e+00,
4.24e+00,6.20e+00,
4.16e+00,6.00e+00,
4.24e+00,6.40e+00,
4.16e+00,6.20e+00,
4.24e+00,6.60e+00,
4.16e+00,6.60e+00,
4.24e+00,7.00e+00,
4.16e+00,6.80e+00,
4.24e+00,7.20e+00,
4.16e+00,7.00e+00,
4.24e+00,7.40e+00,
4.16e+00,7.20e+00,
4.24e+00,7.60e+00,
4.16e+00,7.40e+00,
4.24e+00,8.00e+00,
4.16e+00,7.80e+00,
4.24e+00,8.20e+00,
4.16e+00,8.00e+00,
4.24e+00,8.40e+00,
4.16e+00,8.40e+00,
4.24e+00,8.80e+00,
4.16e+00,8.60e+00,
4.24e+00,9.00e+00,
4.16e+00,8.80e+00,
4.24e+00,9.20e+00,
4.16e+00,9.00e+00,
4.24e+00,9.40e+00,
4.16e+00,9.20e+00,
4.24e+00,9.60e+00,
4.16e+00,9.40e+00,
4.24e+00,9.80e+00,
4.16e+00,9.60e+00,
4.24e+00,1.00e+01,
4.16e+00,1.00e+01,
4.24e+00,1.04e+01,
4.16e+00,1.02e+01,
4.24e+00,1.08e+01,
4.24e+00,1.04e+01,
4.16e+00,1.10e+01,
4.16e+00,1.08e+01,
4.24e+00,1.12e+01,
4.16e+00,1.10e+01,
4.24e+00,1.14e+01,
4.16e+00,1.12e+01,
4.24e+00,1.16e+01,
4.16e+00,1.14e+01,
4.24e+00,1.18e+01,
4.16e+00,1.16e+01,
4.24e+00,1.22e+01,
4.16e+00,1.20e+01,
4.24e+00,1.24e+01,
4.24e+00,1.22e+01,
4.16e+00,1.26e+01,
4.16e+00,1.24e+01,
4.24e+00,1.28e+01,
4.16e+00,1.26e+01,
4.24e+00,1.30e+01,
4.16e+00,1.28e+01,
4.24e+00,1.32e+01,
4.16e+00,1.32e+01,
4.24e+00,1.30e+01,
4.16e+00,1.30e+01,
4.24e+00,1.34e+01,
4.16e+00,1.34e+01,
4.24e+00,1.32e+01,
4.16e+00,1.34e+01,
4.24e+00,1.32e+01,
4.16e+00,1.34e+01,
4.24e+00,1.32e+01,
4.16e+00,1.34e+01,
4.24e+00,1.32e+01,
4.16e+00,1.34e+01,
4.24e+00,1.32e+01,
4.16e+00,1.34e+01,
4.24e+00,1.32e+01,
4.16e+00,1.34e+01,
4.24e+00,1.32e+01,
4.16e+00,1.32e+01,
4.24e+00,1.34e+01,
4.16e+00,1.34e+01,
4.24e+00,1.32e+01,
4.16e+00,1.34e+01,
4.24e+00,1.32e+01,
4.16e+00,1.34e+01,
4.24e+00,1.32e+01,
4.16e+00,1.34e+01,
4.24e+00,1.32e+01,
4.16e+00,1.34e+01,
4.24e+00,1.32e+01,
4.16e+00,1.34e+01,
4.24e+00,1.32e+01,
4.16e+00,1.34e+01,
4.24e+00,1.32e+01,
4.16e+00,1.34e+01,
4.24e+00,1.32e+01,
4.16e+00,1.32e+01,
4.24e+00,1.34e+01,
4.16e+00,1.34e+01,
4.24e+00,1.32e+01,
4.16e+00,1.34e+01,
4.24e+00,1.32e+01,
4.16e+00,1.34e+01,
4.24e+00,1.32e+01,
4.16e+00,1.34e+01,
4.24e+00,1.32e+01,
4.16e+00,1.34e+01,
4.24e+00,1.32e+01,
4.16e+00,1.34e+01,
4.24e+00,1.32e+01,
4.16e+00,1.32e+01,
4.24e+00,1.34e+01,
4.16e+00,1.34e+01,
4.24e+00,1.32e+01,
4.16e+00,1.34e+01,
4.24e+00,1.32e+01,
4.16e+00,1.34e+01,
4.24e+00,1.32e+01,
4.16e+00,1.34e+01,
4.24e+00,1.32e+01,
4.16e+00,1.34e+01,
4.24e+00,1.32e+01,
4.16e+00,1.34e+01,
4.24e+00,1.32e+01,
4.16e+00,1.32e+01,
4.24e+00,1.34e+01,
4.16e+00,1.34e+01,
4.24e+00,1.32e+01,
4.16e+00,1.34e+01,
4.24e+00,1.32e+01,
4.16e+00,1.34e+01,
4.24e+00,1.32e+01,
4.16e+00,1.32e+01,
4.24e+00,1.34e+01,
4.24e+00,1.34e+01,
4.16e+00,1.32e+01,
4.16e+00,1.34e+01,
4.24e+00,1.32e+01,
4.16e+00,1.34e+01,
4.24e+00,1.32e+01,
4.16e+00,1.34e+01,
4.24e+00,1.32e+01,
4.16e+00,1.34e+01,
4.24e+00,1.32e+01,
4.16e+00,1.34e+01,
4.24e+00,1.32e+01,
4.16e+00,1.32e+01,
4.24e+00,1.36e+01,
4.16e+00,1.32e+01,
4.24e+00,1.36e+01,
4.16e+00,1.32e+01,
4.24e+00,1.36e+01,
4.16e+00,1.36e+01,
4.24e+00,1.32e+01,
4.16e+00,1.32e+01,
4.24e+00,1.36e+01,
4.16e+00,1.32e+01,
4.24e+00,1.36e+01,
4.16e+00,1.32e+01,
4.24e+00,1.36e+01,
4.16e+00,1.32e+01,
4.24e+00,1.36e+01,
4.16e+00,1.32e+01,
4.24e+00,1.36e+01,
4.16e+00,1.32e+01,
4.24e+00,1.36e+01,
4.16e+00,1.32e+01,
4.24e+00,1.36e+01,
4.16e+00,1.36e+01,
4.24e+00,1.32e+01,
4.16e+00,1.32e+01,
4.24e+00,1.36e+01,
4.16e+00,1.32e+01,
4.24e+00,1.36e+01,
4.16e+00,1.32e+01,
4.24e+00,1.36e+01,
4.16e+00,1.32e+01,
4.24e+00,1.36e+01,
4.16e+00,1.32e+01,
4.24e+00,1.36e+01,
4.16e+00,1.32e+01,
4.24e+00,1.36e+01,
4.16e+00,1.32e+01,
4.24e+00,1.36e+01,
4.16e+00,1.36e+01,
4.24e+00,1.32e+01,
4.16e+00,1.34e+01,
4.24e+00,1.32e+01,
4.16e+00,1.32e+01,
4.24e+00,1.36e+01,
4.16e+00,1.32e+01,
4.24e+00,1.36e+01,
4.16e+00,1.32e+01,
4.24e+00,1.36e+01,
4.16e+00,1.34e+01,
4.24e+00,1.32e+01,
4.16e+00,1.34e+01,
4.24e+00,1.32e+01,
4.16e+00,1.34e+01,
4.24e+00,1.32e+01,
4.16e+00,1.32e+01,
4.24e+00,1.36e+01,
4.24e+00,1.32e+01,
4.16e+00,1.36e+01,
4.16e+00,1.34e+01,
4.24e+00,1.32e+01,
4.16e+00,1.34e+01,
4.24e+00,1.32e+01,
4.16e+00,1.32e+01,
4.24e+00,1.34e+01,
4.16e+00,1.34e+01,
4.24e+00,1.32e+01,
4.16e+00,1.34e+01,
4.24e+00,1.32e+01,
4.16e+00,1.34e+01,
4.24e+00,1.32e+01,
4.16e+00,1.34e+01,
4.24e+00,1.32e+01,
4.16e+00,1.34e+01,
4.24e+00,1.32e+01,
4.16e+00,1.34e+01,
4.24e+00,1.32e+01,
4.16e+00,1.34e+01,
4.24e+00,1.32e+01,
4.16e+00,1.34e+01,
4.24e+00,1.32e+01,
4.16e+00,1.34e+01,
4.24e+00,1.32e+01,
4.16e+00,1.34e+01,
4.24e+00,1.32e+01,
4.16e+00,1.34e+01,
4.24e+00,1.32e+01,
4.16e+00,1.34e+01,
4.24e+00,1.32e+01,
4.16e+00,1.34e+01,
4.24e+00,1.32e+01,
4.16e+00,1.34e+01,
4.24e+00,1.32e+01,
4.16e+00,1.34e+01,
4.24e+00,1.32e+01,
4.24e+00,1.34e+01,
4.16e+00,1.32e+01,
4.16e+00,1.34e+01,
4.24e+00,1.32e+01,
4.24e+00,1.32e+01,
4.16e+00,1.34e+01,
4.16e+00,1.34e+01,
4.24e+00,1.32e+01,
4.16e+00,1.34e+01,
4.24e+00,1.32e+01,
4.16e+00,1.34e+01,
4.24e+00,1.32e+01,
4.16e+00,1.34e+01,
4.24e+00,1.32e+01,
4.16e+00,1.34e+01,
4.24e+00,1.32e+01,
4.16e+00,1.34e+01,
4.24e+00,1.32e+01,
4.16e+00,1.34e+01,
4.24e+00,1.32e+01,
4.16e+00,1.34e+01,
4.24e+00,1.32e+01,
4.16e+00,1.34e+01,
4.24e+00,1.32e+01,
4.16e+00,1.32e+01,
4.24e+00,1.34e+01,
4.16e+00,1.34e+01,
4.24e+00,1.32e+01,
4.16e+00,1.34e+01,
4.24e+00,1.32e+01,
4.16e+00,1.34e+01,
4.24e+00,1.32e+01,
4.16e+00,1.34e+01,
4.24e+00,1.32e+01,
4.16e+00,1.34e+01,
4.24e+00,1.32e+01,
4.16e+00,1.34e+01,
4.24e+00,1.32e+01,
4.16e+00,1.34e+01,
4.24e+00,1.32e+01,
4.16e+00,1.34e+01,
4.24e+00,1.32e+01,
4.16e+00,1.32e+01,
4.24e+00,1.34e+01,
4.24e+00,1.34e+01,
4.16e+00,1.32e+01,
4.16e+00,1.34e+01,
4.24e+00,1.32e+01,
4.16e+00,1.34e+01,
4.24e+00,1.32e+01,
4.16e+00,1.34e+01,
4.24e+00,1.32e+01,
4.16e+00,1.34e+01,
4.24e+00,1.32e+01,
4.16e+00,1.34e+01,
4.24e+00,1.32e+01,
4.16e+00,1.34e+01,
4.24e+00,1.32e+01,
4.16e+00,1.32e+01,
4.24e+00,1.34e+01,
4.16e+00,1.34e+01,
4.24e+00,1.32e+01,
4.16e+00,1.34e+01,
4.24e+00,1.32e+01,
4.16e+00,1.32e+01,
4.24e+00,1.34e+01,
4.16e+00,1.34e+01,
4.24e+00,1.32e+01,
4.16e+00,1.34e+01,
4.24e+00,1.32e+01,
4.24e+00,1.34e+01,
4.16e+00,1.32e+01,
4.16e+00,1.34e+01,
4.24e+00,1.32e+01,
4.24e+00,1.32e+01,
4.16e+00,1.34e+01,
4.16e+00,1.34e+01,
4.24e+00,1.32e+01,
4.16e+00,1.34e+01,
4.24e+00,1.32e+01,
4.16e+00,1.32e+01,
4.24e+00,1.34e+01,
4.24e+00,1.34e+01,
4.16e+00,1.32e+01,
4.16e+00,1.34e+01,
4.24e+00,1.32e+01,
4.16e+00,1.34e+01,
4.24e+00,1.32e+01,
4.16e+00,1.34e+01,
4.24e+00,1.32e+01,
4.16e+00,1.34e+01,
4.24e+00,1.32e+01,
4.16e+00,1.34e+01,
4.24e+00,1.32e+01,
4.16e+00,1.34e+01,
4.24e+00,1.32e+01,
4.16e+00,1.34e+01,
4.24e+00,1.32e+01,
4.16e+00,1.34e+01,
4.24e+00,1.32e+01,
4.16e+00,1.34e+01,
4.24e+00,1.32e+01,
4.16e+00,1.32e+01,
4.24e+00,1.34e+01,
4.16e+00,1.34e+01,
4.24e+00,1.32e+01,
4.16e+00,1.34e+01,
4.24e+00,1.32e+01,
4.16e+00,1.34e+01,
4.24e+00,1.32e+01,
4.16e+00,1.34e+01,
4.24e+00,1.32e+01,
4.16e+00,1.34e+01,
4.24e+00,1.32e+01,
4.16e+00,1.34e+01,
4.24e+00,1.32e+01,
4.16e+00,1.34e+01,
4.24e+00,1.32e+01,
4.16e+00,1.32e+01,
4.24e+00,1.34e+01,
4.16e+00,1.34e+01,
4.24e+00,1.32e+01,
4.16e+00,1.34e+01,
4.24e+00,1.32e+01,
4.24e+00,1.34e+01,
4.16e+00,1.32e+01,
4.16e+00,1.34e+01,
4.24e+00,1.32e+01,
4.16e+00,1.34e+01,
4.24e+00,1.32e+01,
4.16e+00,1.34e+01,
4.24e+00,1.32e+01,
4.24e+00,1.34e+01,
4.16e+00,1.32e+01,
4.24e+00,1.34e+01,
4.16e+00,1.32e+01,
4.16e+00,1.32e+01,
4.24e+00,1.34e+01,
4.16e+00,1.34e+01,
4.24e+00,1.32e+01,
4.16e+00,1.34e+01,
4.24e+00,1.32e+01,
4.16e+00,1.32e+01,
4.24e+00,1.34e+01,
4.16e+00,1.34e+01,
4.24e+00,1.32e+01,
4.16e+00,1.34e+01,
4.24e+00,1.32e+01,
4.16e+00,1.34e+01,
4.24e+00,1.32e+01,
4.24e+00,1.34e+01,
4.16e+00,1.32e+01,
4.16e+00,1.34e+01,
4.24e+00,1.32e+01,
4.16e+00,1.34e+01,
4.24e+00,1.32e+01,
4.16e+00,1.34e+01,
4.24e+00,1.32e+01,
4.16e+00,1.34e+01,
4.24e+00,1.32e+01,
4.16e+00,1.34e+01,
4.24e+00,1.32e+01,
4.16e+00,1.34e+01,
4.24e+00,1.32e+01,
4.16e+00,1.34e+01,
4.24e+00,1.32e+01,
4.16e+00,1.34e+01,
4.24e+00,1.32e+01,
4.16e+00,1.34e+01,
4.24e+00,1.32e+01,
4.16e+00,1.32e+01,
4.24e+00,1.34e+01,
4.16e+00,1.34e+01,
4.24e+00,1.32e+01,
4.16e+00,1.34e+01,
4.24e+00,1.32e+01,
4.16e+00,1.34e+01,
4.24e+00,1.32e+01,
4.16e+00,1.34e+01,
4.24e+00,1.32e+01,
4.16e+00,1.34e+01,
4.24e+00,1.32e+01,
4.16e+00,1.34e+01,
4.24e+00,1.32e+01,
4.16e+00,1.34e+01,
4.24e+00,1.32e+01,
4.16e+00,1.34e+01,
4.24e+00,1.32e+01,
4.16e+00,1.34e+01,
4.24e+00,1.32e+01,
4.16e+00,1.34e+01,
4.24e+00,1.32e+01,
4.16e+00,1.34e+01,
4.24e+00,1.32e+01,
4.16e+00,1.34e+01,
4.24e+00,1.32e+01,
4.16e+00,1.34e+01,
4.24e+00,1.32e+01,
4.24e+00,1.34e+01,
4.16e+00,1.32e+01,
4.16e+00,1.34e+01,
4.24e+00,1.32e+01,
4.16e+00,1.34e+01,
4.24e+00,1.32e+01,
4.16e+00,1.34e+01,
4.24e+00,1.32e+01,
4.16e+00,1.34e+01,
4.24e+00,1.32e+01,
4.16e+00,1.34e+01,
4.24e+00,1.32e+01,
4.16e+00,1.34e+01,
4.24e+00,1.32e+01,
4.16e+00,1.32e+01,
4.24e+00,1.34e+01,
4.16e+00,1.34e+01,
4.24e+00,1.32e+01,
4.16e+00,1.34e+01,
4.24e+00,1.32e+01,
4.16e+00,1.34e+01,
4.24e+00,1.32e+01,
4.16e+00,1.32e+01,
4.24e+00,1.34e+01,
4.16e+00,1.34e+01,
4.24e+00,1.32e+01,
4.16e+00,1.34e+01,
4.24e+00,1.32e+01,
4.16e+00,1.34e+01,
4.24e+00,1.32e+01,
4.16e+00,1.34e+01,
4.24e+00,1.32e+01,
4.16e+00,1.34e+01,
4.24e+00,1.32e+01,
4.24e+00,1.32e+01,
4.16e+00,1.34e+01,
4.16e+00,1.34e+01,
4.24e+00,1.32e+01,
4.16e+00,1.32e+01,
4.24e+00,1.34e+01,
4.24e+00,1.34e+01,
4.16e+00,1.32e+01,
4.16e+00,1.32e+01,
4.24e+00,1.34e+01,
4.16e+00,1.32e+01,
4.24e+00,1.34e+01,
4.16e+00,1.32e+01,
4.24e+00,1.34e+01,
4.16e+00,1.32e+01,
4.24e+00,1.34e+01,
4.16e+00,1.34e+01,
4.24e+00,1.32e+01,
4.16e+00,1.34e+01,
4.24e+00,1.32e+01,
4.16e+00,1.32e+01,
4.24e+00,1.34e+01,
4.16e+00,1.34e+01,
4.24e+00,1.32e+01,
4.16e+00,1.34e+01,
4.24e+00,1.32e+01,
4.24e+00,1.34e+01,
4.16e+00,1.32e+01,
4.16e+00,1.34e+01,
4.24e+00,1.32e+01,
4.16e+00,1.32e+01,
4.24e+00,1.34e+01,
4.16e+00,1.34e+01,
4.24e+00,1.32e+01,
4.16e+00,1.34e+01,
4.24e+00,1.32e+01,
4.16e+00,1.32e+01,
4.24e+00,1.34e+01,
4.24e+00,1.34e+01,
4.16e+00,1.32e+01,
4.16e+00,1.34e+01,
4.24e+00,1.32e+01,
4.16e+00,1.34e+01,
4.24e+00,1.32e+01,
4.16e+00,1.34e+01,
4.24e+00,1.32e+01,
4.16e+00,1.34e+01,
4.24e+00,1.32e+01,
4.16e+00,1.34e+01,
4.24e+00,1.32e+01,
4.16e+00,1.34e+01,
4.24e+00,1.32e+01,
4.16e+00,1.32e+01,
4.24e+00,1.34e+01,
4.16e+00,1.34e+01,
4.24e+00,1.32e+01,
4.16e+00,1.34e+01,
4.24e+00,1.32e+01,
4.16e+00,1.34e+01,
4.24e+00,1.32e+01,
4.16e+00,1.34e+01,
4.24e+00,1.32e+01,
4.16e+00,1.34e+01,
4.24e+00,1.32e+01,
4.16e+00,1.34e+01,
4.24e+00,1.32e+01,
4.16e+00,1.34e+01,
4.24e+00,1.32e+01,
4.16e+00,1.34e+01,
4.24e+00,1.32e+01,
4.16e+00,1.34e+01,
4.24e+00,1.32e+01,
4.16e+00,1.34e+01,
4.24e+00,1.32e+01,
4.16e+00,1.34e+01,
4.24e+00,1.32e+01,
4.16e+00,1.34e+01,
4.24e+00,1.32e+01,
4.16e+00,1.34e+01,
4.24e+00,1.32e+01,
4.16e+00,1.34e+01,
4.24e+00,1.32e+01,
4.16e+00,1.34e+01,
4.24e+00,1.32e+01,
4.16e+00,1.34e+01,
4.24e+00,1.32e+01,
4.16e+00,1.34e+01,
4.24e+00,1.32e+01,
